<?xml version="1.0" encoding="utf-8"?>
<!-- Generator: Adobe Illustrator 21.0.0, SVG Export Plug-In . SVG Version: 6.00 Build 0)  -->
<svg version="1.1" id="Layer_1" xmlns="http://www.w3.org/2000/svg" xmlns:xlink="http://www.w3.org/1999/xlink" x="0px" y="0px"
	 viewBox="0 0 690.1 191.1" style="enable-background:new 0 0 690.1 191.1;" xml:space="preserve">
<style type="text/css">
	.st0{display:none;fill:none;stroke:#000000;stroke-width:18;stroke-miterlimit:10;}
	.st1{display:none;}
	.st2{display:inline;fill:#3D8A35;}
	.st3{fill:#3A8C38;}
	.st4{fill:#2E3192;}
	.st5{fill:#FFFFFF;}
	.st6{display:inline;fill:#3A8C38;}
	.st7{display:inline;fill:#2E3192;}
	.st8{display:inline;fill:#FFFFFF;}
	.st9{enable-background:new    ;}
	.st10{fill:none;stroke:#3A8C38;stroke-width:6.6;stroke-linejoin:round;stroke-miterlimit:10;}
	.st11{display:inline;}
</style>
<polyline class="st0" points="-842,88.7 -686.9,88.7 -648,-67.7 -511,234 -455.9,18.7 -432.2,88.7 -227.7,88.7 "/>
<g class="st1">
	<path class="st2" d="M-648-67.7L-511,234l55.1-215.4l23.7,70H-247C-161.9-53.8-378.4-252.1-510.5-120
		C-640.7-250.3-856.9-52.3-773.8,88.7h86.8L-648-67.7z"/>
</g>
<g>
	<rect x="-910" y="-302.4" class="st1" width="800" height="800"/>
	<path class="st3" d="M-510.6,467.5l-339.1-339.1C-1048.2-70.1-709-409.2-510.6-210.7c201-201.1,540.2,138,339.1,339.1L-510.6,467.5
		z"/>
	<path class="st4" d="M-399.8,84.9l-33.5-99.2l-78.1,305.2l-194.1-427.6l-55.2,221.5h-123.1c8.9,15,20.1,29.6,34,43.4l339.1,339.1
		l339.1-339.1c13.9-13.9,25.2-28.5,34.2-43.4L-399.8,84.9L-399.8,84.9z"/>
	<path class="st5" d="M-125.5,61.7h-257.6L-436.4-96l-81.1,317.2L-711.9-207l-67,268.7h-116.5c6.7,15.9,15.8,31.5,27.6,46.5h125.2
		l43.5-174.4l193.9,427l75-293.3l13.8,40.7h263C-141.6,93.2-132.3,77.6-125.5,61.7z"/>
</g>
<g class="st1">
	<path class="st6" d="M96.9,47.2L76.1,26.4C64,14.2,84.7-6.5,96.9,5.6c12.3-12.3,33.1,8.5,20.8,20.8L96.9,47.2z"/>
	<path class="st7" d="M103.7,23.7l-2.1-6.1l-4.8,18.7L85,10.2l-3.4,13.6h-7.5c0.5,0.9,1.2,1.8,2.1,2.7L97,47.3l20.8-20.8
		c0.9-0.9,1.5-1.7,2.1-2.7L103.7,23.7L103.7,23.7z"/>
	<path class="st8" d="M120.2,22.9h-15.9l-2.7-8l-5,19.1L84.8,7.8L81,22.9h-7.3c0.3,0.5,0.6,1.1,0.9,1.6h7.6l3-12l11.9,26.2l4.7-18.3
		l1.4,4.1h16.1C119.6,24,119.9,23.5,120.2,22.9z"/>
</g>
<g>
	<rect x="72.6" y="0.5" class="st1" width="48.7" height="48.7"/>
	<path class="st3" d="M96.9,47.3L76.3,26.7C64.2,14.6,84.9-6,96.9,6c12.2-12.2,32.9,8.4,20.6,20.6L96.9,47.3z"/>
	<path class="st4" d="M103.7,24l-2-6L97,36.6l-11.8-26L81.7,24h-7.5c0.5,0.9,1.2,1.8,2.1,2.6l20.6,20.6l20.6-20.6
		c0.8-0.8,1.5-1.7,2.1-2.6H103.7z"/>
	<path class="st5" d="M120.4,22.6h-15.7l-3.2-9.6l-4.9,19.3l-11.9-26l-4.1,16.3h-7.1c0.4,1,1,1.9,1.7,2.8h7.6l2.6-10.6l11.8,26
		l4.6-17.8l0.8,2.5h16C119.4,24.5,120,23.6,120.4,22.6z"/>
</g>
<g>
	<path class="st4" d="M2.6,120.6v-88h37.8c9.8,0,17.7,2.1,23.6,6.2s8.8,9.7,8.8,16.7c0,10.7-6.3,17.6-18.9,20.8
		c6.5,2.4,10.7,5,12.6,7.9s3.2,8.5,3.9,16.8c0.8,9.9,2.5,16.4,5,19.6H47.7c-1.8-4.1-2.6-9.2-2.6-15.3l-0.1-5.2l-0.1-6.6
		c0-10.1-4.1-15.2-12.2-15.2h-4.4v42.3C28.3,120.6,2.6,120.6,2.6,120.6z M28.1,71.1h5.2c9.7,0,14.5-5,14.5-15.1S43,40.9,33.3,40.9
		h-5.2C28.1,40.9,28.1,71.1,28.1,71.1z"/>
	<path class="st4" d="M85.2,120.6V55.7c7.3,0,15.2-0.6,23.5-1.7v66.6H85.2z"/>
	<path class="st4" d="M168.1,91.6l9.9,3l0.1,2.6c0,16.5-9,24.8-27.1,24.8c-21.4,0-32.1-10.8-32.1-32.5c0-10.9,3.1-19.5,9.3-26
		s14.6-9.7,25.1-9.7c15.1,0,22.6,6.8,22.6,20.5l-11,5.3l0.1-6.2c0-9.3-3.1-13.9-9.3-13.9c-8.3,0-12.4,9.1-12.4,27.3
		c0,11.3,0.9,19,2.6,23.2c1.8,4.2,5,6.3,9.8,6.3c8.7,0,13.1-5.7,13.1-17C168.9,97.8,168.6,95.2,168.1,91.6z"/>
	<path class="st4" d="M186.2,120.6v-88c7,0,14.8-0.5,23.5-1.4v35.5c5.1-8.6,12.2-12.8,21.5-12.8c10.9,0,16.4,4.9,16.4,14.7v51.9H224
		V71.3c0-3.7-1.2-5.6-3.7-5.6c-2.6,0-5,2.4-7.2,7.2c-2.2,4.8-3.4,9.9-3.4,15.4v32.4h-23.5V120.6z"/>
	<path class="st3" d="M343.6,32.6v88H319V59.4l-17.1,61.2h-14.2L270,60.4v60.2h-8.6v-88h25.9l15.1,53.1l15-53.1
		C317.4,32.6,343.6,32.6,343.6,32.6z"/>
	<path class="st3" d="M423.2,118.3c-5.8,2.2-11.4,3.4-16.8,3.4c-8.1,0-13.1-2.5-15-7.5c-3.9,5.2-9.5,7.9-16.9,7.9
		c-13.7,0-20.6-6.4-20.6-19.1c0-9.7,6.3-16.5,18.8-20.4c11.5-3.6,17.3-7.9,17.3-13c0-6.7-3.3-10-9.9-10c-7.6,0-11.5,3.2-11.5,9.7
		c0,2,0.6,4.7,1.8,8L358.7,75c-0.3-2-0.5-3.9-0.5-5.7c0-10.3,9.4-15.5,28.2-15.5c17.9,0,26.8,4.8,26.8,14.4v39.4
		c0,4,1.3,6.1,3.9,6.1c0.8,0,2-0.5,3.6-1.4L423.2,118.3z M389.9,81.6c-1.5,1.7-3.2,3.1-5.1,4.2c-4.9,2.8-7.3,7.6-7.3,14.3
		c0,8.6,1.7,12.9,5,12.9c4.9,0,7.3-4.3,7.3-12.8V81.6H389.9z"/>
	<path class="st3" d="M481.2,55.7l-19.1,26l29,52h-26.9L445,99.4l-15.7,21.3h-9L441,92.4l-20.6-36.7h27.1l10.6,18.9l14.1-18.9
		C472.2,55.7,481.2,55.7,481.2,55.7z"/>
</g>
<g class="st9">
	<path class="st4" d="M186.4,141.3h12.1l4.7,18.1l4.6-18.1h12.1V171h-7.5v-22.7l-5.8,22.7h-6.8l-5.8-22.7V171h-7.5V141.3z"/>
	<path class="st4" d="M249.1,162.3h-16.6c0.1,1.3,0.5,2.3,1.1,3c0.8,0.9,1.8,1.4,3.1,1.4c0.8,0,1.6-0.2,2.3-0.6
		c0.4-0.3,0.9-0.7,1.4-1.4l8.1,0.8c-1.2,2.2-2.7,3.7-4.5,4.7c-1.8,0.9-4.3,1.4-7.6,1.4c-2.9,0-5.1-0.4-6.7-1.2
		c-1.6-0.8-3-2.1-4.1-3.8c-1.1-1.8-1.6-3.8-1.6-6.2c0-3.4,1.1-6.1,3.2-8.2c2.2-2.1,5.1-3.1,8.9-3.1c3.1,0,5.5,0.5,7.3,1.4
		c1.8,0.9,3.1,2.3,4.1,4.1c0.9,1.8,1.4,4.1,1.4,6.9V162.3z M240.7,158.3c-0.2-1.6-0.6-2.7-1.3-3.4c-0.7-0.7-1.6-1-2.8-1
		c-1.3,0-2.4,0.5-3.1,1.6c-0.5,0.6-0.8,1.6-1,2.9H240.7z"/>
	<path class="st4" d="M275.6,141.3V171h-7.7v-3.2c-1.1,1.4-2.1,2.3-3,2.7c-1.2,0.6-2.5,0.9-4,0.9c-2.9,0-5.2-1.1-6.7-3.4
		c-1.6-2.2-2.3-4.9-2.3-8.1c0-3.6,0.9-6.3,2.6-8.2c1.7-1.9,3.9-2.8,6.5-2.8c1.3,0,2.5,0.2,3.5,0.6c1,0.4,2,1.1,2.8,1.9v-10.3H275.6z
		 M267.3,160.2c0-1.7-0.4-3-1.1-3.8c-0.7-0.8-1.6-1.2-2.7-1.2c-1,0-1.8,0.4-2.4,1.2c-0.6,0.8-1,2.1-1,4c0,1.8,0.3,3,1,3.9
		c0.7,0.8,1.5,1.2,2.5,1.2c1.1,0,1.9-0.4,2.6-1.2S267.3,162.1,267.3,160.2z"/>
	<path class="st4" d="M280.9,141.3h8.3v5.6h-8.3V141.3z M280.9,149.5h8.3V171h-8.3V149.5z"/>
	<path class="st4" d="M310.6,162.6l7.9,0.9c-0.4,1.6-1.1,3.1-2.1,4.3c-1,1.2-2.3,2.1-3.8,2.8c-1.5,0.7-3.5,1-5.9,1
		c-2.3,0-4.2-0.2-5.7-0.6c-1.5-0.4-2.8-1.1-3.9-2.1c-1.1-1-2-2.1-2.6-3.4c-0.6-1.3-0.9-3-0.9-5.1c0-2.2,0.4-4.1,1.1-5.5
		c0.6-1.1,1.3-2.1,2.3-2.9c1-0.9,1.9-1.5,3-1.9c1.6-0.7,3.7-1,6.2-1c3.5,0,6.2,0.6,8.1,1.9s3.1,3.1,3.9,5.5l-7.8,1
		c-0.2-0.9-0.7-1.6-1.3-2.1c-0.6-0.5-1.5-0.7-2.6-0.7c-1.4,0-2.5,0.5-3.3,1.5s-1.3,2.5-1.3,4.4c0,1.8,0.4,3.1,1.3,4
		c0.8,0.9,1.9,1.4,3.2,1.4c1.1,0,2-0.3,2.7-0.8C309.6,164.6,310.2,163.7,310.6,162.6z"/>
	<path class="st4" d="M329.8,156.5l-7.9-0.8c0.3-1.4,0.7-2.5,1.3-3.3c0.6-0.8,1.4-1.5,2.4-2.1c0.8-0.4,1.8-0.7,3.1-1
		c1.3-0.2,2.8-0.3,4.3-0.3c2.5,0,4.5,0.1,6,0.4c1.5,0.3,2.8,0.9,3.8,1.7c0.7,0.6,1.3,1.5,1.7,2.6c0.4,1.1,0.6,2.2,0.6,3.2v9.5
		c0,1,0.1,1.8,0.2,2.4c0.1,0.6,0.4,1.3,0.8,2.2h-7.8c-0.3-0.6-0.5-1-0.6-1.3c-0.1-0.3-0.2-0.7-0.3-1.4c-1.1,1-2.2,1.8-3.2,2.2
		c-1.5,0.6-3.2,0.9-5.1,0.9c-2.6,0-4.5-0.6-5.9-1.8c-1.3-1.2-2-2.7-2-4.4c0-1.6,0.5-3,1.4-4c1-1.1,2.7-1.8,5.3-2.4
		c3.1-0.6,5.1-1.1,6-1.3c0.9-0.2,1.9-0.6,2.9-1c0-1-0.2-1.7-0.6-2.1s-1.2-0.6-2.2-0.6c-1.4,0-2.4,0.2-3,0.6
		C330.5,154.9,330.1,155.5,329.8,156.5z M336.9,160.8c-1.1,0.4-2.3,0.8-3.6,1.1c-1.7,0.4-2.7,0.9-3.2,1.3c-0.5,0.4-0.7,1-0.7,1.5
		c0,0.6,0.2,1.2,0.7,1.6c0.5,0.4,1.1,0.6,2,0.6c0.9,0,1.8-0.2,2.6-0.7c0.8-0.4,1.4-1,1.7-1.6c0.3-0.6,0.5-1.5,0.5-2.5V160.8z"/>
	<path class="st4" d="M350.2,141.3h8.3V171h-8.3V141.3z"/>
	<path class="st4" d="M398,158.8l8.1,2.4c-0.5,2.3-1.4,4.1-2.6,5.7c-1.2,1.5-2.6,2.7-4.3,3.4c-1.7,0.8-3.9,1.2-6.6,1.2
		c-3.2,0-5.9-0.5-7.9-1.4c-2.1-0.9-3.8-2.6-5.3-5c-1.5-2.4-2.2-5.4-2.2-9.1c0-4.9,1.3-8.7,3.9-11.4c2.6-2.6,6.3-4,11.1-4
		c3.7,0,6.7,0.8,8.8,2.3c2.1,1.5,3.7,3.8,4.8,7l-8.1,1.8c-0.3-0.9-0.6-1.6-0.9-2c-0.5-0.7-1.1-1.2-1.9-1.6c-0.7-0.4-1.6-0.6-2.5-0.6
		c-2.1,0-3.7,0.8-4.8,2.5c-0.8,1.2-1.3,3.2-1.3,5.9c0,3.3,0.5,5.6,1.5,6.8c1,1.2,2.4,1.8,4.2,1.8c1.8,0,3.1-0.5,4-1.5
		C397,162.2,397.6,160.7,398,158.8z"/>
	<path class="st4" d="M433.9,162.3h-16.6c0.1,1.3,0.5,2.3,1.1,3c0.8,0.9,1.8,1.4,3.1,1.4c0.8,0,1.6-0.2,2.3-0.6
		c0.4-0.3,0.9-0.7,1.4-1.4l8.1,0.8c-1.2,2.2-2.7,3.7-4.5,4.7c-1.8,0.9-4.3,1.4-7.6,1.4c-2.9,0-5.1-0.4-6.7-1.2
		c-1.6-0.8-3-2.1-4.1-3.8c-1.1-1.8-1.6-3.8-1.6-6.2c0-3.4,1.1-6.1,3.2-8.2c2.2-2.1,5.1-3.1,8.9-3.1c3.1,0,5.5,0.5,7.3,1.4
		c1.8,0.9,3.1,2.3,4.1,4.1c0.9,1.8,1.4,4.1,1.4,6.9V162.3z M425.5,158.3c-0.2-1.6-0.6-2.7-1.3-3.4s-1.6-1-2.8-1
		c-1.3,0-2.4,0.5-3.1,1.6c-0.5,0.6-0.8,1.6-1,2.9H425.5z"/>
	<path class="st4" d="M437.7,149.5h7.7v3.5c1.1-1.4,2.3-2.5,3.5-3.1c1.2-0.6,2.6-0.9,4.3-0.9c2.3,0,4.1,0.7,5.4,2
		c1.3,1.4,1.9,3.5,1.9,6.3V171h-8.3v-11.9c0-1.4-0.2-2.3-0.8-2.9c-0.5-0.6-1.2-0.8-2.1-0.8c-1,0-1.8,0.4-2.4,1.1
		c-0.6,0.8-0.9,2.1-0.9,4.1V171h-8.3V149.5z"/>
	<path class="st4" d="M475.4,141.3v8.2h4.5v6.1h-4.5v7.6c0,0.9,0.1,1.5,0.3,1.8c0.3,0.5,0.7,0.7,1.4,0.7c0.6,0,1.5-0.2,2.6-0.5
		l0.6,5.7c-2,0.4-4,0.7-5.7,0.7c-2.1,0-3.6-0.3-4.5-0.8c-1-0.5-1.7-1.3-2.2-2.4c-0.5-1.1-0.7-2.8-0.7-5.2v-7.6h-3v-6.1h3v-4
		L475.4,141.3z"/>
	<path class="st4" d="M484,149.5h7.7v3.5c0.7-1.5,1.5-2.6,2.3-3.2c0.8-0.6,1.8-0.9,2.9-0.9c1.2,0,2.6,0.4,4,1.1l-2.6,5.9
		c-1-0.4-1.7-0.6-2.3-0.6c-1.1,0-1.9,0.4-2.5,1.3c-0.9,1.3-1.3,3.6-1.3,7.1v7.2H484V149.5z"/>
	<path class="st4" d="M527,162.3h-16.6c0.1,1.3,0.5,2.3,1.1,3c0.8,0.9,1.8,1.4,3.1,1.4c0.8,0,1.6-0.2,2.3-0.6
		c0.4-0.3,0.9-0.7,1.4-1.4l8.1,0.8c-1.2,2.2-2.7,3.7-4.5,4.7c-1.8,0.9-4.3,1.4-7.6,1.4c-2.9,0-5.1-0.4-6.7-1.2
		c-1.6-0.8-3-2.1-4.1-3.8c-1.1-1.8-1.6-3.8-1.6-6.2c0-3.4,1.1-6.1,3.2-8.2c2.2-2.1,5.1-3.1,8.9-3.1c3.1,0,5.5,0.5,7.3,1.4
		c1.8,0.9,3.1,2.3,4.1,4.1c0.9,1.8,1.4,4.1,1.4,6.9V162.3z M518.6,158.3c-0.2-1.6-0.6-2.7-1.3-3.4c-0.7-0.7-1.6-1-2.8-1
		c-1.3,0-2.4,0.5-3.1,1.6c-0.5,0.6-0.8,1.6-1,2.9H518.6z"/>
</g>
<polyline class="st10" points="482.8,130.3 527.7,130.3 537.7,112.3 546.7,150.3 569.9,31.3 582,187.3 605.3,74.3 619,152.3 
	628,114.3 635,130.3 688,130.3 "/>
<g class="st1">
	<path class="st11" d="M620,191.3c-0.1,0-0.1,0-0.2,0c-1.7-0.1-3-1.4-3.1-3.1L605.8,47.5L588,151.4c-0.3,1.6-1.6,2.7-3.2,2.8
		c-1.6,0-3-1-3.4-2.6l-7-29.7l-5.8,10.5c-0.6,1.1-1.7,1.7-2.9,1.7h-44.9v-6.7h42.9l9-16.3c0.7-1.2,2-1.9,3.4-1.7
		c1.4,0.2,2.5,1.2,2.8,2.6l5.2,22.1l19.6-114.2c0.3-1.7,1.8-2.9,3.5-2.8s3.1,1.4,3.2,3.1L621.5,164L640,73.9
		c0.3-1.6,1.7-2.7,3.3-2.7s3,1.2,3.2,2.8l10.9,62.2l5.2-22.2c0.3-1.4,1.5-2.4,3-2.6c1.5-0.1,2.8,0.7,3.4,2l6.1,14H706v6.7h-33
		c-1.3,0-2.5-0.8-3.1-2l-3-6.8l-6.7,28.3c-0.4,1.6-1.8,2.6-3.4,2.6c-1.6,0-2.9-1.2-3.2-2.8L643,92.5l-19.8,96.1
		C623,190.2,621.6,191.3,620,191.3z"/>
</g>
</svg>
